<?xml version="1.0" encoding="utf-8"?>
<!-- Generator: Adobe Illustrator 16.0.0, SVG Export Plug-In . SVG Version: 6.00 Build 0)  -->
<!DOCTYPE svg PUBLIC "-//W3C//DTD SVG 1.1//EN" "http://www.w3.org/Graphics/SVG/1.1/DTD/svg11.dtd">
<svg version="1.1" id="Capa_1" xmlns="http://www.w3.org/2000/svg" xmlns:xlink="http://www.w3.org/1999/xlink" x="0px" y="0px"
	 width="24px" height="24px" viewBox="0 0 24 24" enable-background="new 0 0 24 24" xml:space="preserve">
<g>
	<polygon points="8.274,17.878 8.274,17.878 24,0 21.111,0 0,24 2.889,24 7.825,18.389 	"/>
	<path d="M9,11.24V7.5C9,6.12,10.12,5,11.5,5c1.107,0,2.036,0.726,2.364,1.724l1.431-1.626C14.498,3.839,13.104,3,11.5,3
		C9.01,3,7,5.01,7,7.5C7,9.06,7.79,10.43,9,11.24z"/>
	<path d="M18.84,15.87l-4.54-2.261c-0.17-0.069-0.35-0.109-0.54-0.109h-0.303L10,17.43l-0.602,0.685l-2.412,2.742l2.704,2.704
		C9.96,23.83,10.34,24,10.75,24h6.79c0.75,0,1.33-0.55,1.44-1.279l0.75-5.271c0.01-0.07,0.02-0.14,0.02-0.2
		C19.75,16.63,19.37,16.09,18.84,15.87z"/>
	<path d="M10,7.5v3.618l3-3.411V7.5C13,6.67,12.33,6,11.5,6S10,6.67,10,7.5z"/>
</g>
</svg>
